"x"
""	NA
"ACC"	80
"CESC"	312
"CHOL"	45
"DLBC"	47
"ESCA"	198
"FPPP-FFPE"	23
"HNSC"	532
"KICH"	91
"KIRP"	326
"LGG"	526
"LIHC"	424
"LUSC"	387
"MESO"	87
"OV"	461
"PAAD"	183
"PCPG"	187
"SKCM"	452
"STAD"	436
"TGCT"	156
"THYM"	126
"UCS"	56
"GBMLGG"	531
"STES"	634
